{
   "results":[
      {
         "vote_count":819,
         "id":287947,
         "video":false,
         "vote_average":7.4,
         "title":"Shazam!",
         "popularity":449.427,
         "poster_path":"/xnopI5Xtky18MPhK40cZAGAOVeV.jpg",
         "original_language":"en",
         "original_title":"Shazam!",
         "genre_ids":[
            28,
            35,
            12,
            14
         ],
         "backdrop_path":"/bi4jh0Kt0uuZGsGJoUUfqmbrjQg.jpg",
         "adult":false,
         "overview":"A boy is given the ability to become an adult superhero in times of need with a single magic word.",
         "release_date":"2019-03-23"
      },
      {
         "vote_count":3736,
         "id":299537,
         "video":false,
         "vote_average":7.2,
         "title":"Captain Marvel",
         "popularity":343.366,
         "poster_path":"/AtsgWhDnHTq68L0lLsUrCnM7TjG.jpg",
         "original_language":"en",
         "original_title":"Captain Marvel",
         "genre_ids":[
            28,
            12,
            878
         ],
         "backdrop_path":"/w2PMyoyLU22YvrGK3smVM9fW1jj.jpg",
         "adult":false,
         "overview":"The story follows Carol Danvers as she becomes one of the universe’s most powerful heroes when Earth is caught in the middle of a galactic war between two alien races. Set in the 1990s, Captain Marvel is an all-new adventure from a previously unseen period in the history of the Marvel Cinematic Universe.",
         "release_date":"2019-03-06"
      },
      {
         "vote_count":1431,
         "id":166428,
         "video":false,
         "vote_average":7.6,
         "title":"How to Train Your Dragon: The Hidden World",
         "popularity":336.818,
         "poster_path":"/xvx4Yhf0DVH8G4LzNISpMfFBDy2.jpg",
         "original_language":"en",
         "original_title":"How to Train Your Dragon: The Hidden World",
         "genre_ids":[
            16,
            10751,
            12
         ],
         "backdrop_path":"/h3KN24PrOheHVYs9ypuOIdFBEpX.jpg",
         "adult":false,
         "overview":"As Hiccup fulfills his dream of creating a peaceful dragon utopia, Toothless’ discovery of an untamed, elusive mate draws the Night Fury away. When danger mounts at home and Hiccup’s reign as village chief is tested, both dragon and rider must make impossible decisions to save their kind.",
         "release_date":"2019-01-03"
      },
      {
         "vote_count":744,
         "id":522681,
         "video":false,
         "vote_average":6.3,
         "title":"Escape Room",
         "popularity":267.268,
         "poster_path":"/8yZAx7tlKRZIg7pJfaPhl00yHIQ.jpg",
         "original_language":"en",
         "original_title":"Escape Room",
         "genre_ids":[
            53
         ],
         "backdrop_path":"/mWLljCmpqlcYQh7uh51BBMwCZwN.jpg",
         "adult":false,
         "overview":"Six strangers find themselves in circumstances beyond their control, and must use their wits to survive.",
         "release_date":"2019-01-03"
      },
      {
         "vote_count":775,
         "id":329996,
         "video":false,
         "vote_average":6.7,
         "title":"Dumbo",
         "popularity":199.672,
         "poster_path":"/279PwJAcelI4VuBtdzrZASqDPQr.jpg",
         "original_language":"en",
         "original_title":"Dumbo",
         "genre_ids":[
            12,
            10751,
            14
         ],
         "backdrop_path":"/5tFt6iuGnKapHl5tw0X0cKcnuVo.jpg",
         "adult":false,
         "overview":"A young elephant, whose oversized ears enable him to fly, helps save a struggling circus, but when the circus plans a new venture, Dumbo and his friends discover dark secrets beneath its shiny veneer.",
         "release_date":"2019-03-27"
      },
      {
         "vote_count":972,
         "id":458723,
         "video":false,
         "vote_average":7.3,
         "title":"Us",
         "popularity":167.942,
         "poster_path":"/ux2dU1jQ2ACIMShzB3yP93Udpzc.jpg",
         "original_language":"en",
         "original_title":"Us",
         "genre_ids":[
            53,
            27
         ],
         "backdrop_path":"/jNUCddkM1fjYcFIcEwFjc7s2H4V.jpg",
         "adult":false,
         "overview":"Husband and wife Gabe and Adelaide Wilson take their kids to their beach house expecting to unplug and unwind with friends. But as night descends, their serenity turns to tension and chaos when some shocking visitors arrive uninvited.",
         "release_date":"2019-03-14"
      },
      {
         "vote_count":1876,
         "id":424783,
         "video":false,
         "vote_average":6.4,
         "title":"Bumblebee",
         "popularity":140.345,
         "poster_path":"/fw02ONlDhrYjTSZV8XO6hhU3ds3.jpg",
         "original_language":"en",
         "original_title":"Bumblebee",
         "genre_ids":[
            28,
            12,
            878
         ],
         "backdrop_path":"/wtZj5nn6hVwgakPdg6y6gm3eFXU.jpg",
         "adult":false,
         "overview":"On the run in the year 1987, Bumblebee finds refuge in a junkyard in a small Californian beach town. Charlie, on the cusp of turning 18 and trying to find her place in the world, discovers Bumblebee, battle-scarred and broken.  When Charlie revives him, she quickly learns this is no ordinary yellow VW bug.",
         "release_date":"2018-12-15"
      },
      {
         "vote_count":108,
         "id":537915,
         "video":false,
         "vote_average":7.1,
         "title":"After",
         "popularity":129.721,
         "poster_path":"/u3B2YKUjWABcxXZ6Nm9h10hLUbh.jpg",
         "original_language":"en",
         "original_title":"After",
         "genre_ids":[
            18,
            10749,
            53
         ],
         "backdrop_path":"/8lESY7UGpOsbL2caib9Qe4bOebF.jpg",
         "adult":false,
         "overview":"A young woman falls for a guy with a dark secret and the two embark on a rocky relationship.",
         "release_date":"2019-04-11"
      },
      {
         "vote_count":190,
         "id":157433,
         "video":false,
         "vote_average":5.9,
         "title":"Pet Sematary",
         "popularity":100.293,
         "poster_path":"/7SPhr7Qj39vbnfF9O2qHRYaKHAL.jpg",
         "original_language":"en",
         "original_title":"Pet Sematary",
         "genre_ids":[
            27,
            53
         ],
         "backdrop_path":"/n2aX63BmW7zIKgKJ58e6rKlSsdi.jpg",
         "adult":false,
         "overview":"Louis Creed, his wife Rachel and their two children Gage and Ellie move to a rural home where they are welcomed and enlightened about the eerie 'Pet Sematary' located nearby. After the tragedy of their cat being killed by a truck, Louis resorts to burying it in the mysterious pet cemetery, which is definitely not as it seems, as it proves to the Creeds that sometimes dead is better.",
         "release_date":"2019-04-04"
      },
      {
         "vote_count":62,
         "id":456740,
         "video":false,
         "vote_average":4.9,
         "title":"Hellboy",
         "popularity":91.975,
         "poster_path":"/nUXCJMnAiwCpNPZuJH2n6h5hGtF.jpg",
         "original_language":"en",
         "original_title":"Hellboy",
         "genre_ids":[
            28,
            12,
            14
         ],
         "backdrop_path":"/5BkSkNtfrnTuKOtTaZhl8avn4wU.jpg",
         "adult":false,
         "overview":"Hellboy comes to England, where he must defeat Nimue, Merlin's consort and the Blood Queen. But their battle will bring about the end of the world, a fate he desperately tries to turn away.",
         "release_date":"2019-04-11"
      },
      {
         "vote_count":81,
         "id":471507,
         "video":false,
         "vote_average":5.9,
         "title":"Destroyer",
         "popularity":90.449,
         "poster_path":"/sHw9gTdo43nJL82py0oaROkXXNr.jpg",
         "original_language":"en",
         "original_title":"Destroyer",
         "genre_ids":[
            53,
            80,
            18,
            28
         ],
         "backdrop_path":"/rURV5xPzt9ZxEXAc4OQmxchGyZ8.jpg",
         "adult":false,
         "overview":"Erin Bell is an LAPD detective who, as a young cop, was placed undercover with a gang in the California desert with tragic results. When the leader of that gang re-emerges many years later, she must work her way back through the remaining members and into her own history with them to finally reckon with the demons that destroyed her past.",
         "release_date":"2018-12-25"
      },
      {
         "vote_count":1199,
         "id":504172,
         "video":false,
         "vote_average":6.4,
         "title":"The Mule",
         "popularity":86.988,
         "poster_path":"/oeZh7yEz3PMnZLgBPhrafFHRbVz.jpg",
         "original_language":"en",
         "original_title":"The Mule",
         "genre_ids":[
            80,
            18,
            53
         ],
         "backdrop_path":"/bTeRgkAavyw1eCtSkaww18wLYNP.jpg",
         "adult":false,
         "overview":"Earl Stone, a man in his 80s who is broke, alone, and facing foreclosure of his business when he is offered a job that simply requires him to drive. Easy enough, but, unbeknownst to Earl, he’s just signed on as a drug courier for a Mexican cartel. He does so well that his cargo increases exponentially, and Earl hit the radar of hard-charging DEA agent Colin Bates.",
         "release_date":"2018-12-14"
      },
      {
         "vote_count":330,
         "id":500682,
         "video":false,
         "vote_average":6.8,
         "title":"The Highwaymen",
         "popularity":86.233,
         "poster_path":"/4bRYg4l12yDuJvAfqvUOPnBrxno.jpg",
         "original_language":"en",
         "original_title":"The Highwaymen",
         "genre_ids":[
            80,
            18,
            53
         ],
         "backdrop_path":"/pZ78ksjPlXf3q2EeONN8WdHE03Y.jpg",
         "adult":false,
         "overview":"In 1934, Frank Hamer and Manny Gault, two former Texas Rangers, are commissioned to put an end to the wave of vicious crimes perpetrated by Bonnie Parker and Clyde Barrow, a notorious duo of infamous robbers and cold-blooded killers who nevertheless are worshiped by the public.",
         "release_date":"2019-03-15"
      },
      {
         "vote_count":283,
         "id":527729,
         "video":false,
         "vote_average":7,
         "title":"Asterix: The Secret of the Magic Potion",
         "popularity":76.48,
         "poster_path":"/wmMq5ypRNJbWpdhC9aPjpdx1MMp.jpg",
         "original_language":"fr",
         "original_title":"Astérix - Le Secret de la Potion Magique",
         "genre_ids":[
            16,
            10751,
            35,
            12
         ],
         "backdrop_path":"/9cPMIuB2tv4IP0LbeNhrK5OyDy5.jpg",
         "adult":false,
         "overview":"Following a fall during mistletoe picking, Druid Getafix decides that it is time to secure the future of the village. Accompanied by Asterix and Obelix, he undertakes to travel the Gallic world in search of a talented young druid to transmit the Secret of the Magic Potion.",
         "release_date":"2018-12-05"
      },
      {
         "vote_count":17,
         "id":576071,
         "video":false,
         "vote_average":5.7,
         "title":"Unplanned",
         "popularity":75.12,
         "poster_path":"/hQvf3RHgmp4XXXl2y6zhMe4G4kg.jpg",
         "original_language":"en",
         "original_title":"Unplanned",
         "genre_ids":[
            18
         ],
         "backdrop_path":"/tgjwS3oh53biNsNuzRKUjUVdXAE.jpg",
         "adult":false,
         "overview":"As one of the youngest Planned Parenthood clinic directors in the nation, Abby Johnson was involved in upwards of 22,000 abortions and counseled countless women on their reproductive choices. Her passion surrounding a woman's right to choose led her to become a spokesperson for Planned Parenthood, fighting to enact legislation for the cause she so deeply believed in. Until the day she saw something that changed everything.",
         "release_date":"2019-03-21"
      },
      {
         "vote_count":342,
         "id":527641,
         "video":false,
         "vote_average":8.2,
         "title":"Five Feet Apart",
         "popularity":70.22,
         "poster_path":"/kreTuJBkUjVWePRfhHZuYfhNE1T.jpg",
         "original_language":"en",
         "original_title":"Five Feet Apart",
         "genre_ids":[
            10749,
            18
         ],
         "backdrop_path":"/d7wa3VpUpKDQ7GG9EMw8zSJCFoI.jpg",
         "adult":false,
         "overview":"Seventeen-year-old Stella spends most of her time in the hospital as a cystic fibrosis patient. Her life is full of routines, boundaries and self-control -- all of which get put to the test when she meets Will, an impossibly charming teen who has the same illness.",
         "release_date":"2019-03-15"
      },
      {
         "vote_count":119,
         "id":450001,
         "video":false,
         "vote_average":5.1,
         "title":"Master Z: Ip Man Legacy",
         "popularity":69.97,
         "poster_path":"/nkCoAik5I4j3Gkd2upj9xv4F0QN.jpg",
         "original_language":"cn",
         "original_title":"葉問外傳：張天志",
         "genre_ids":[
            28
         ],
         "backdrop_path":"/grtVFGJ4ts0nDAPpc1JWbBoVKTu.jpg",
         "adult":false,
         "overview":"After being defeated by Ip Man, Cheung Tin Chi is attempting to keep a low profile. While going about his business, he gets into a fight with a foreigner by the name of Davidson, who is a big boss behind the bar district. Tin Chi fights hard with Wing Chun and earns respect.",
         "release_date":"2018-12-20"
      },
      {
         "vote_count":103,
         "id":454294,
         "video":false,
         "vote_average":5.9,
         "title":"The Kid Who Would Be King",
         "popularity":65.808,
         "poster_path":"/kBuvLX6zynQP0sjyqbXV4jNaZ4E.jpg",
         "original_language":"en",
         "original_title":"The Kid Who Would Be King",
         "genre_ids":[
            28,
            12,
            14,
            10751
         ],
         "backdrop_path":"/jmbgxBd86MshzQQvv5laKvOKoMm.jpg",
         "adult":false,
         "overview":"Old-school magic meets the modern world when young Alex stumbles upon the mythical sword Excalibur. He soon unites his friends and enemies, and they become knights who join forces with the legendary wizard Merlin. Together, they must save mankind from the wicked enchantress Morgana and her army of supernatural warriors.",
         "release_date":"2019-01-16"
      },
      {
         "vote_count":6790,
         "id":424694,
         "video":false,
         "vote_average":8.1,
         "title":"Bohemian Rhapsody",
         "popularity":64.299,
         "poster_path":"/lHu1wtNaczFPGFDTrjCSzeLPTKN.jpg",
         "original_language":"en",
         "original_title":"Bohemian Rhapsody",
         "genre_ids":[
            18,
            10402
         ],
         "backdrop_path":"/xcaSYLBhmDzJ6P14bcKe0KTh3QV.jpg",
         "adult":false,
         "overview":"Singer Freddie Mercury, guitarist Brian May, drummer Roger Taylor and bass guitarist John Deacon take the music world by storm when they form the rock 'n' roll band Queen in 1970. Hit songs become instant classics. When Mercury's increasingly wild lifestyle starts to spiral out of control, Queen soon faces its greatest challenge yet – finding a way to keep the band together amid the success and excess.",
         "release_date":"2018-10-24"
      },
      {
         "vote_count":38,
         "id":500904,
         "video":false,
         "vote_average":4.9,
         "title":"A Vigilante",
         "popularity":62.777,
         "poster_path":"/avoKZfgBzyBGJsrAr2WQOwZK978.jpg",
         "original_language":"en",
         "original_title":"A Vigilante",
         "genre_ids":[
            53,
            18
         ],
         "backdrop_path":"/kReEky4XRCAq22H5V37kDcNY9dj.jpg",
         "adult":false,
         "overview":"A vigilante helps victims escape their domestic abusers.",
         "release_date":"2019-03-29"
      }
   ],
   "page":1,
   "total_results":1097,
   "dates":{
      "maximum":"2019-04-19",
      "minimum":"2019-03-02"
   },
   "total_pages":55
}